9606	hg38	hg38	hg38	www	
10090	mm10	mm10	mm10	www	
10116	Rnor_6.0	rn6	rn6	www	
6239	WBcel235	ce11	ce11	www	
7955	GRCz11	danRer11	danRer11	www	
7227	dm6	dm6	dm6	www	
3702	TAIR10	TAIR10	araTha1	plants	GCF_000001735.4
4932	R64-1-1	R64-1-1	sacCer3	fungi	
4896	ASM294v2	ASM294v2	spo2	fungi	
